<svg width="18" height="13" viewBox="0 0 18 13" fill="none" xmlns="http://www.w3.org/2000/svg">
<path d="M6.55001 13.0001L0.850006 7.3001L2.27501 5.8751L6.55001 10.1501L15.725 0.975098L17.15 2.4001L6.55001 13.0001Z" fill="#515A67"/>
</svg>
